<svg width="1429" height="500" viewBox="0 0 1429 500" fill="none" xmlns="http://www.w3.org/2000/svg">
<g filter="url(#filter0_d)">
<mask id="mask0" mask-type="alpha" maskUnits="userSpaceOnUse" x="32" y="37" width="338" height="426">
<path fill-rule="evenodd" clip-rule="evenodd" d="M191.405 379.8C192.798 380.905 194.725 380.905 196.118 379.8L214.722 365.042C217.695 362.684 216.099 357.731 212.366 357.731H175.158C171.425 357.731 169.829 362.684 172.801 365.042L191.405 379.8ZM204.216 363.937C205.178 363.937 205.958 363.144 205.958 362.164C205.958 361.185 205.178 360.391 204.216 360.391C203.253 360.391 202.473 361.185 202.473 362.164C202.473 363.144 203.253 363.937 204.216 363.937Z" fill="white"/>
<path fill-rule="evenodd" clip-rule="evenodd" d="M170.674 402.591C180.959 402.591 189.799 397.341 193.672 389.829C197.545 397.341 206.385 402.591 216.67 402.591C221.24 402.591 225.524 401.554 229.215 399.744L229.215 427.416C229.215 447.002 213.614 462.88 194.369 462.88C175.125 462.88 159.524 447.002 159.524 427.416V400.379C162.883 401.795 166.669 402.591 170.674 402.591ZM193.762 407.633C192.8 407.633 192.02 408.448 192.02 409.453V453.69C192.02 454.695 192.8 455.51 193.762 455.51C194.725 455.51 195.505 454.695 195.505 453.69V409.453C195.505 408.448 194.725 407.633 193.762 407.633Z" fill="white"/>
<path d="M270.835 37C258.546 69.5963 251.849 110.947 265.226 153.188C269.438 135.284 273.97 119.165 278.679 104.709C294.849 176.706 333.24 227.099 354.867 246.346C373.293 289.905 386.395 379.577 322.593 443.066C299.587 430.252 277.47 413.929 258.039 393.39C260.409 392.364 262.838 391.19 265.3 389.854C277.357 383.305 290.323 372.767 300.758 356.413C301.776 354.819 301.69 352.696 300.611 351.627C299.445 350.472 297.583 350.992 296.473 352.707C286.921 367.458 275.048 377.131 263.796 383.243C260.142 385.228 256.567 386.829 253.179 388.101C250.721 385.346 248.311 382.519 245.952 379.619C249.336 378.098 252.872 376.255 256.468 374.049C268.329 366.775 280.987 355.463 290.958 338.499C291.932 336.842 291.774 334.688 290.65 333.671C289.468 332.6 287.677 333.2 286.644 334.937C277.5 350.312 265.88 360.73 254.783 367.535C250.216 370.336 245.762 372.51 241.639 374.159C239.703 371.633 237.805 369.055 235.949 366.423C240.217 364.168 244.784 361.327 249.423 357.827C260.854 349.203 272.864 336.467 281.903 318.417C282.787 316.651 282.484 314.446 281.277 313.538C280.073 312.632 278.426 313.36 277.54 315.118C269.227 331.618 258.146 343.42 247.398 351.529C242.077 355.544 236.87 358.628 232.175 360.913C211.375 329.627 196.25 291.057 190.437 243.776C189.766 247.078 189.079 250.579 188.358 254.253C182.351 284.872 173.983 327.517 152.515 367.788C146.928 365.421 140.334 361.817 133.554 356.702C122.806 348.593 111.725 336.791 103.413 320.291C102.527 318.533 100.879 317.805 99.675 318.711C98.4681 319.619 98.165 321.824 99.0493 323.59C108.088 341.64 120.098 354.376 131.529 363C137.751 367.694 143.842 371.201 149.256 373.701C147.81 376.24 146.31 378.767 144.751 381.278C139.251 379.545 132.83 376.793 126.169 372.708C115.072 365.903 103.452 355.485 94.3083 340.111C93.2749 338.373 91.4846 337.774 90.3018 338.844C89.1786 339.861 89.0207 342.015 89.9946 343.672C99.9655 360.636 112.623 371.948 124.484 379.222C130.252 382.76 135.864 385.363 140.941 387.206C139.059 390.035 137.1 392.839 135.059 395.614C129.719 394.193 123.561 391.894 117.156 388.416C105.904 382.304 94.0311 372.631 84.4791 357.88C83.3689 356.166 81.5073 355.645 80.3413 356.8C79.2628 357.869 79.1765 359.992 80.1941 361.587C90.6293 377.94 103.595 388.478 115.653 395.027C120.864 397.857 125.932 399.957 130.593 401.466C120.927 413.683 109.564 425.219 96.1395 435.585C9.33602 341.87 -34.9816 178.888 270.835 37Z" fill="white"/>
</mask>
<g mask="url(#mask0)">
<g clip-path="url(#clip0)">
<path fill-rule="evenodd" clip-rule="evenodd" d="M341.377 488.979C343.122 490.304 345.536 490.304 347.281 488.979L370.586 471.28C374.31 468.452 372.31 462.512 367.634 462.512H321.023C316.348 462.512 314.348 468.453 318.071 471.28L341.377 488.979ZM357.424 469.956C358.63 469.956 359.607 469.003 359.607 467.829C359.607 466.655 358.63 465.702 357.424 465.702C356.219 465.702 355.242 466.655 355.242 467.829C355.242 469.003 356.219 469.956 357.424 469.956Z" fill="#1D6654"/>
<path fill-rule="evenodd" clip-rule="evenodd" d="M315.407 516.311C328.291 516.311 339.365 510.016 344.217 501.007C349.068 510.016 360.142 516.311 373.026 516.311C378.751 516.311 384.118 515.068 388.741 512.897L388.741 546.083C388.741 569.572 369.197 588.614 345.09 588.614C320.982 588.614 301.438 569.572 301.438 546.083V513.658C305.646 515.356 310.389 516.311 315.407 516.311ZM344.329 522.358C343.124 522.358 342.147 523.335 342.147 524.541V577.593C342.147 578.798 343.124 579.775 344.329 579.775C345.535 579.775 346.512 578.798 346.512 577.593V524.541C346.512 523.335 345.535 522.358 344.329 522.358Z" fill="#1D6654"/>
<path d="M440.879 77.8716C425.484 116.963 417.095 166.554 433.852 217.212C439.129 195.739 444.806 176.41 450.705 159.073C470.961 245.416 519.054 305.85 546.147 328.933C569.229 381.171 585.642 488.711 505.717 564.852C476.897 549.484 449.19 529.908 424.849 505.277C427.818 504.047 430.861 502.639 433.945 501.036C449.049 493.182 465.292 480.545 478.364 460.932C479.639 459.02 479.531 456.474 478.179 455.192C476.719 453.807 474.387 454.431 472.996 456.487C461.03 474.177 446.157 485.778 432.062 493.108C427.483 495.488 423.006 497.408 418.762 498.934C415.682 495.63 412.663 492.24 409.708 488.762C413.946 486.937 418.376 484.727 422.882 482.082C437.74 473.358 453.596 459.792 466.087 439.448C467.307 437.461 467.109 434.877 465.702 433.658C464.22 432.374 461.977 433.093 460.683 435.177C449.228 453.615 434.672 466.109 420.77 474.27C415.049 477.629 409.469 480.237 404.305 482.214C401.88 479.185 399.503 476.093 397.176 472.936C402.523 470.232 408.244 466.826 414.056 462.627C428.376 452.285 443.421 437.011 454.744 415.364C455.852 413.246 455.472 410.602 453.96 409.513C452.452 408.427 450.388 409.3 449.278 411.409C438.864 431.196 424.983 445.35 411.519 455.074C404.853 459.889 398.331 463.588 392.449 466.329C366.393 428.808 347.445 382.553 340.164 325.85C339.323 329.811 338.463 334.009 337.56 338.415C330.034 375.135 319.552 426.278 292.658 474.574C285.66 471.735 277.4 467.413 268.906 461.278C255.442 451.554 241.561 437.4 231.148 417.613C230.038 415.503 227.974 414.63 226.465 415.717C224.954 416.806 224.574 419.45 225.682 421.568C237.005 443.215 252.05 458.488 266.369 468.831C274.163 474.461 281.793 478.667 288.577 481.665C286.765 484.71 284.885 487.74 282.933 490.751C276.043 488.673 267.999 485.373 259.655 480.474C245.754 472.312 231.197 459.819 219.743 441.381C218.448 439.297 216.205 438.578 214.724 439.862C213.317 441.081 213.119 443.665 214.339 445.652C226.829 465.996 242.685 479.562 257.544 488.286C264.769 492.528 271.8 495.651 278.16 497.861C275.802 501.254 273.348 504.617 270.791 507.944C264.101 506.24 256.387 503.483 248.364 499.311C234.268 491.982 219.395 480.381 207.429 462.691C206.039 460.635 203.707 460.011 202.246 461.396C200.895 462.678 200.787 465.224 202.062 467.136C215.134 486.749 231.376 499.386 246.481 507.24C253.009 510.634 259.358 513.153 265.197 514.962C253.088 529.613 238.853 543.448 222.036 555.88C113.297 443.491 57.7801 248.032 440.879 77.8716Z" fill="#1D6654"/>
</g>
<rect x="-20.6003" y="27.8428" width="487.032" height="43.5478" fill="#252847"/>
<rect x="-20.5994" y="71.3904" width="487.032" height="43.5478" fill="#045156"/>
<rect x="-20.5994" y="114.938" width="487.032" height="43.5478" fill="#086F50"/>
<rect x="-20.5994" y="158.486" width="487.032" height="43.5478" fill="#14BC82"/>
<rect x="-20.5994" y="202.034" width="487.032" height="43.5478" fill="#A6D26A"/>
<rect x="-20.5994" y="245.582" width="487.032" height="43.5478" fill="#F3B951"/>
<rect x="-20.728" y="288.472" width="486.72" height="50.024" fill="#E76839"/>
<rect x="-20.728" y="338.496" width="486.72" height="44.616" fill="#E50F45"/>
<rect x="-20.728" y="381.76" width="486.72" height="39.208" fill="#9B2B5A"/>
<rect x="-20.4695" y="417.708" width="486.866" height="47.5884" fill="#6C045D"/>
</g>
</g>
<path d="M497.77 347.379C497.77 341.129 495.556 336.311 491.129 332.926C486.767 329.54 478.857 326.122 467.398 322.672C455.94 319.221 446.826 315.38 440.055 311.148C427.099 303.01 420.621 292.398 420.621 279.312C420.621 267.854 425.276 258.414 434.586 250.992C443.961 243.57 456.103 239.859 471.012 239.859C480.908 239.859 489.729 241.682 497.477 245.328C505.224 248.974 511.311 254.182 515.738 260.953C520.165 267.659 522.379 275.113 522.379 283.316H497.77C497.77 275.895 495.426 270.1 490.738 265.934C486.116 261.702 479.475 259.586 470.816 259.586C462.743 259.586 456.461 261.311 451.969 264.762C447.542 268.212 445.328 273.03 445.328 279.215C445.328 284.423 447.737 288.785 452.555 292.301C457.372 295.751 465.315 299.137 476.383 302.457C487.451 305.712 496.337 309.456 503.043 313.688C509.749 317.854 514.664 322.672 517.789 328.141C520.914 333.544 522.477 339.892 522.477 347.184C522.477 359.033 517.919 368.473 508.805 375.504C499.755 382.47 487.451 385.953 471.891 385.953C461.604 385.953 452.132 384.065 443.473 380.289C434.879 376.448 428.173 371.174 423.355 364.469C418.603 357.763 416.227 349.951 416.227 341.031H440.934C440.934 349.104 443.603 355.354 448.941 359.781C454.28 364.208 461.93 366.422 471.891 366.422C480.484 366.422 486.93 364.697 491.227 361.246C495.589 357.73 497.77 353.108 497.77 347.379ZM585.27 367.008C591.194 367.008 596.109 365.283 600.016 361.832C603.922 358.382 606.005 354.117 606.266 349.039H628.629C628.368 355.615 626.318 361.767 622.477 367.496C618.635 373.16 613.427 377.652 606.852 380.973C600.276 384.293 593.18 385.953 585.562 385.953C570.784 385.953 559.065 381.168 550.406 371.598C541.747 362.027 537.418 348.811 537.418 331.949V329.508C537.418 313.427 541.715 300.569 550.309 290.934C558.902 281.233 570.621 276.383 585.465 276.383C598.03 276.383 608.251 280.061 616.129 287.418C624.072 294.71 628.238 304.312 628.629 316.227H606.266C606.005 310.172 603.922 305.191 600.016 301.285C596.174 297.379 591.259 295.426 585.27 295.426C577.587 295.426 571.663 298.225 567.496 303.824C563.329 309.358 561.214 317.789 561.148 329.117V332.926C561.148 344.384 563.199 352.945 567.301 358.609C571.467 364.208 577.457 367.008 585.27 367.008ZM709.684 384C708.642 381.982 707.73 378.694 706.949 374.137C699.397 382.014 690.152 385.953 679.215 385.953C668.603 385.953 659.944 382.926 653.238 376.871C646.533 370.816 643.18 363.329 643.18 354.41C643.18 343.147 647.346 334.521 655.68 328.531C664.078 322.477 676.057 319.449 691.617 319.449H706.168V312.516C706.168 307.047 704.638 302.685 701.578 299.43C698.518 296.109 693.863 294.449 687.613 294.449C682.21 294.449 677.783 295.816 674.332 298.551C670.882 301.22 669.156 304.638 669.156 308.805H645.426C645.426 303.01 647.346 297.607 651.188 292.594C655.029 287.516 660.237 283.544 666.812 280.68C673.453 277.815 680.842 276.383 688.98 276.383C701.35 276.383 711.214 279.508 718.57 285.758C725.927 291.943 729.703 300.667 729.898 311.93V359.586C729.898 369.091 731.233 376.676 733.902 382.34V384H709.684ZM683.609 366.91C688.297 366.91 692.691 365.771 696.793 363.492C700.96 361.214 704.085 358.154 706.168 354.312V334.391H693.375C684.586 334.391 677.978 335.921 673.551 338.98C669.124 342.04 666.91 346.37 666.91 351.969C666.91 356.526 668.408 360.172 671.402 362.906C674.462 365.576 678.531 366.91 683.609 366.91ZM784.488 252.652V278.336H803.141V295.914H784.488V354.898C784.488 358.935 785.27 361.865 786.832 363.688C788.46 365.445 791.324 366.324 795.426 366.324C798.16 366.324 800.927 365.999 803.727 365.348V383.707C798.323 385.204 793.115 385.953 788.102 385.953C769.872 385.953 760.758 375.895 760.758 355.777V295.914H743.375V278.336H760.758V252.652H784.488ZM864.762 367.008C870.686 367.008 875.602 365.283 879.508 361.832C883.414 358.382 885.497 354.117 885.758 349.039H908.121C907.861 355.615 905.81 361.767 901.969 367.496C898.128 373.16 892.919 377.652 886.344 380.973C879.768 384.293 872.672 385.953 865.055 385.953C850.276 385.953 838.557 381.168 829.898 371.598C821.24 362.027 816.91 348.811 816.91 331.949V329.508C816.91 313.427 821.207 300.569 829.801 290.934C838.395 281.233 850.113 276.383 864.957 276.383C877.522 276.383 887.743 280.061 895.621 287.418C903.564 294.71 907.73 304.312 908.121 316.227H885.758C885.497 310.172 883.414 305.191 879.508 301.285C875.667 297.379 870.751 295.426 864.762 295.426C857.079 295.426 851.155 298.225 846.988 303.824C842.822 309.358 840.706 317.789 840.641 329.117V332.926C840.641 344.384 842.691 352.945 846.793 358.609C850.96 364.208 856.949 367.008 864.762 367.008ZM949.43 289.859C957.177 280.875 966.975 276.383 978.824 276.383C1001.35 276.383 1012.78 289.241 1013.1 314.957V384H989.371V315.836C989.371 308.544 987.776 303.401 984.586 300.406C981.461 297.346 976.839 295.816 970.719 295.816C961.214 295.816 954.117 300.048 949.43 308.512V384H925.699V234H949.43V289.859ZM1083.71 385.953C1068.67 385.953 1056.46 381.233 1047.09 371.793C1037.78 362.288 1033.12 349.658 1033.12 333.902V330.973C1033.12 320.426 1035.14 311.018 1039.18 302.75C1043.28 294.417 1049.01 287.939 1056.36 283.316C1063.72 278.694 1071.92 276.383 1080.97 276.383C1095.36 276.383 1106.46 280.973 1114.27 290.152C1122.15 299.332 1126.09 312.32 1126.09 329.117V338.688H1057.05C1057.76 347.411 1060.66 354.312 1065.74 359.391C1070.88 364.469 1077.33 367.008 1085.07 367.008C1095.95 367.008 1104.8 362.613 1111.64 353.824L1124.43 366.031C1120.2 372.346 1114.53 377.262 1107.44 380.777C1100.41 384.228 1092.5 385.953 1083.71 385.953ZM1080.88 295.426C1074.36 295.426 1069.09 297.704 1065.05 302.262C1061.08 306.819 1058.54 313.167 1057.44 321.305H1102.65V319.547C1102.13 311.604 1100.02 305.615 1096.3 301.578C1092.59 297.477 1087.45 295.426 1080.88 295.426ZM1199.92 300.016C1196.79 299.495 1193.57 299.234 1190.25 299.234C1179.38 299.234 1172.05 303.401 1168.28 311.734V384H1144.55V278.336H1167.2L1167.79 290.152C1173.52 280.973 1181.46 276.383 1191.62 276.383C1195 276.383 1197.8 276.839 1200.02 277.75L1199.92 300.016Z" fill="black"/>
<path d="M1201.96 381.539C1201.96 380.742 1202.21 380.069 1202.71 379.522C1203.23 378.953 1203.95 378.668 1204.86 378.668C1205.77 378.668 1206.49 378.953 1207.01 379.522C1207.54 380.069 1207.8 380.742 1207.8 381.539C1207.8 382.337 1207.54 382.997 1207.01 383.521C1206.49 384.023 1205.77 384.273 1204.86 384.273C1203.95 384.273 1203.23 384.023 1202.71 383.521C1202.21 382.997 1201.96 382.337 1201.96 381.539ZM1232.75 381.231C1235.6 381.231 1237.98 380.434 1239.9 378.839C1241.83 377.221 1242.88 375.136 1243.04 372.584H1246.97C1246.86 374.84 1246.15 376.902 1244.85 378.771C1243.55 380.616 1241.82 382.063 1239.66 383.111C1237.51 384.16 1235.21 384.684 1232.75 384.684C1227.9 384.684 1224.05 382.997 1221.2 379.625C1218.37 376.253 1216.96 371.718 1216.96 366.021V364.791C1216.96 361.145 1217.6 357.921 1218.88 355.118C1220.15 352.315 1221.97 350.151 1224.34 348.624C1226.74 347.097 1229.53 346.334 1232.72 346.334C1236.77 346.334 1240.11 347.542 1242.73 349.957C1245.38 352.372 1246.79 355.551 1246.97 359.493H1243.04C1242.86 356.599 1241.81 354.264 1239.9 352.486C1238 350.709 1235.61 349.82 1232.72 349.82C1229.03 349.82 1226.16 351.153 1224.1 353.819C1222.08 356.485 1221.06 360.222 1221.06 365.03V366.227C1221.06 370.943 1222.08 374.623 1224.1 377.267C1226.16 379.91 1229.04 381.231 1232.75 381.231ZM1252.92 364.962C1252.92 361.407 1253.6 358.206 1254.97 355.357C1256.36 352.509 1258.31 350.299 1260.81 348.727C1263.34 347.132 1266.2 346.334 1269.39 346.334C1274.31 346.334 1278.3 348.066 1281.36 351.529C1284.41 354.97 1285.94 359.539 1285.94 365.235V366.09C1285.94 369.667 1285.24 372.892 1283.85 375.763C1282.48 378.611 1280.55 380.81 1278.04 382.359C1275.53 383.909 1272.67 384.684 1269.46 384.684C1264.56 384.684 1260.57 382.963 1257.5 379.522C1254.44 376.059 1252.92 371.479 1252.92 365.782V364.962ZM1257.02 366.09C1257.02 370.51 1258.16 374.145 1260.44 376.993C1262.74 379.819 1265.75 381.231 1269.46 381.231C1273.15 381.231 1276.14 379.819 1278.42 376.993C1280.72 374.145 1281.87 370.396 1281.87 365.748V364.962C1281.87 362.136 1281.34 359.55 1280.3 357.203C1279.25 354.856 1277.78 353.045 1275.89 351.769C1274 350.47 1271.83 349.82 1269.39 349.82C1265.75 349.82 1262.77 351.256 1260.47 354.127C1258.17 356.975 1257.02 360.712 1257.02 365.338V366.09ZM1298.14 347.018L1298.27 353.033C1299.64 350.8 1301.35 349.125 1303.4 348.009C1305.45 346.892 1307.73 346.334 1310.24 346.334C1316.07 346.334 1319.77 348.727 1321.35 353.512C1322.67 351.21 1324.43 349.444 1326.64 348.214C1328.85 346.961 1331.29 346.334 1333.96 346.334C1341.89 346.334 1345.93 350.663 1346.09 359.322V384H1341.99V359.63C1341.97 356.326 1341.25 353.876 1339.84 352.281C1338.45 350.686 1336.17 349.889 1333 349.889C1330.06 349.934 1327.58 350.891 1325.55 352.76C1323.52 354.605 1322.39 356.861 1322.17 359.527V384H1318.06V359.322C1318.04 356.155 1317.29 353.797 1315.81 352.247C1314.35 350.675 1312.09 349.889 1309.04 349.889C1306.47 349.889 1304.26 350.629 1302.41 352.11C1300.56 353.569 1299.2 355.745 1298.31 358.639V384H1294.21V347.018H1298.14Z" fill="black"/>
<defs>
<filter id="filter0_d" x="27.1191" y="37" width="347.762" height="435.642" filterUnits="userSpaceOnUse" color-interpolation-filters="sRGB">
<feFlood flood-opacity="0" result="BackgroundImageFix"/>
<feColorMatrix in="SourceAlpha" type="matrix" values="0 0 0 0 0 0 0 0 0 0 0 0 0 0 0 0 0 0 127 0"/>
<feOffset dy="4.88087"/>
<feGaussianBlur stdDeviation="2.44043"/>
<feColorMatrix type="matrix" values="0 0 0 0 0 0 0 0 0 0 0 0 0 0 0 0 0 0 0.25 0"/>
<feBlend mode="normal" in2="BackgroundImageFix" result="effect1_dropShadow"/>
<feBlend mode="normal" in="SourceGraphic" in2="effect1_dropShadow" result="shape"/>
</filter>
<clipPath id="clip0">
<rect width="487.032" height="435.478" fill="white" transform="translate(-20.6003 27.8428)"/>
</clipPath>
</defs>
</svg>
